CS 1675 Recitation: Week 05
…
Generate random samples.

post_samples_N05 <- generate_post_samples(laplace_res, N = 1e4, info_N05)

post_samples_N05

## # A tibble: 10,000 x 3
##       mu  varphi sigma
##    <dbl>   <dbl> <dbl>
##  1  250. -0.285   9.09
##  2  252. -0.998   5.89
##  3  255. -1.68    3.64
##  4  250. -1.08    5.56
##  5  249. -0.0154 10.4 
##  6  254. -2.05    2.78
##  7  249. -0.376   8.64
##  8  253. -0.365   8.70
##  9  251. -0.646   7.38
## 10  255. -1.16    5.27
## # … with 9,990 more rows
…
